{
    "name": "Shop",
    "fields": [
        {
            "fieldName": "idShop",
            "fieldType": "Integer",
            "fieldValidateRules": [
                "required"
            ]
        },
        {
            "fieldName": "name",
            "fieldType": "String"
        },
        {
            "fieldName": "latitude",
            "fieldType": "Double"
        },
        {
            "fieldName": "longitude",
            "fieldType": "Double"
        },
        {
            "fieldName": "image",
            "fieldType": "byte[]",
            "fieldTypeBlobContent": "image"
        }
    ],
    "relationships": [],
    "changelogDate": "20181020211624",
    "entityTableName": "shop",
    "dto": "no",
    "pagination": "no",
    "service": "no",
    "jpaMetamodelFiltering": false,
    "fluentMethods": true,
    "clientRootFolder": "",
    "applications": "*"
}